Assignment 2 - AirBnB
…
Elevator

Microwave

Dishes and silverware

TV

Pool

Gym

Pets allowed

# A tibble: 21 × 2
   bathrooms_text       n
   <chr>            <int>
 1 0 baths              3
 2 1 bath            3073
 3 1 private bath     696
 4 1 shared bath       74
 5 1.5 baths          459
 6 1.5 shared baths    34
 7 2 baths            572
 8 2 shared baths       5
 9 2.5 baths           61
10 2.5 shared baths     4
# ℹ 11 more rows
…
