Assignment3_code
…
Sample Design

We will have 3 samples. 2011-2013 in Data_panel. However, in each sample, we will use values from the previous year as well to create variables such as growth of employment. Hence, in each data set, we will have 2 years of data. For example, in the first data set, we will have 2010 and 2011. In the second data set, we will have 2011 and 2012. In the third data set, we will have 2012 and 2013.

I restrict the sample to only those existed in t-1, t, t+1, and t+2 in the dataset.

Dealing with Missing Values

# A tibble: 48 × 2
   variable       value
   <chr>          <int>
 1 D             207657
 2 finished_prod 192681
 3 wages         192106
 4 COGS          191864
 5 net_dom_sales 191864
 6 net_exp_sales 191864
 7 exit_year     184273
 8 exit_date     174336
 9 labor_avg      83195
10 birth_year     73055
# ℹ 38 more rows
…
The outcome variable (fast_growing) is an indicator of whether the firm achieves an outstanding annual growth rate in sales_cost_ratio for the next 2 consecutive years.

Outstanding annual growth rate is defined as having the highest 25% growth rate in the industry that year (4th quartile).

# A tibble: 21 × 3
# Groups:   year [12]
    year outstanding_growth_rate_t1     n
   <dbl>                      <dbl> <int>
 1  2005                          0 14643
 2  2006                          0 11621
 3  2006                          1  3478
 4  2007                          0 13156
 5  2007                          1  3321
 6  2008                          0 13772
 7  2008                          1  3795
 8  2009                          0 13567
 9  2009                          1  4965
10  2010                          0 14901
# ℹ 11 more rows
…
Items that cannot be negative: extra_inc, inventories, personnel_exp, curr_liab, fixed_assets, curr_assets, intang_assets

Fixed assets is important as it captures the capital intensity of the firm. The change in fixed assets is also important as it captures the investment activity of the firm.

Similarly, intangible assets is important in the same way as it captures the assets acquired mainly for the purpose of long-term growth.

Personnel expenditure is also another important variable. I create Personnel expenditure/ average number of employees. This may capture the talent level of the employees. The change in this ratio is also meaningful.

The growth of the number of employees is also potentially important. I create the growth rate of the number of employees.

Dealing with missing values again.

# A tibble: 37 × 2
   variable                           value
   <chr>                              <int>
 1 intang_assets_growth_rate         170499
 2 personnel_exp_per_emp_growth_rate 102298
 3 emp_growth_rate                    96426
 4 personnel_exp_per_emp              64254
 5 emp_avg                            63418
 6 fixed_assets_growth_rate           59468
 7 growth_rate                        48512
 8 flag_extra_inc_problem             10249
 9 net_profit_margin                   9498
10 ind                                 6911
# ℹ 27 more rows
…
# A tibble: 1 × 1
      n
  <int>
1  7545

# A tibble: 1 × 1
      n
  <int>
1   528

# A tibble: 37 × 2
   variable                          value
   <chr>                             <int>
 1 fixed_assets_growth_rate           2545
 2 ind                                2154
 3 personnel_exp_per_emp_growth_rate  1964
 4 intang_assets_growth_rate          1779
 5 ind2_cat                           1225
 6 emp_growth_rate                     762
 7 region_m                            218
 8 personnel_exp_per_emp               160
 9 flag_personnel_exp_problem          160
10 fixed_assets_ratio                  126
# ℹ 27 more rows
…
